survival-analysis-generalized-gamma-model-r – Survival Analysis
…
Code

# Prediction for new data (60-year-old male)
new_data <- data.frame(age = 60 - mean(lung_clean$age), sex = 1)
median_time <- predict(gg_model_cov, newdata = new_data, type = "survival")[[1]]
print("Median survival time (days):")

[1] "Median survival time (days):"

Code

print(median_time)

[[1]]
# A tibble: 228 × 2
   .eval_time .pred_survival
        <dbl>          <dbl>
 1          5          0.999
 2         11          0.996
 3         11          0.996
 4         11          0.996
 5         12          0.996
 6         13          0.996
 7         13          0.996
 8         15          0.995
 9         26          0.989
10         30          0.987
# ℹ 218 more rows
…
