survival-analysis-gompertz-model-r – Survival Analysis
…
Code

# Prediction for new data (60-year-old male)
new_data <- data.frame(age_centered = 60 - mean(lung_clean$age), sex = 1)
median_time <- predict(gompertz_model_cov, newdata = new_data, type = "survival")[[1]]
print("Median survival time (days):")

[1] "Median survival time (days):"

Code

print(median_time)

[[1]]
# A tibble: 228 × 2
   .eval_time .pred_survival
        <dbl>          <dbl>
 1          5          0.990
 2         11          0.979
 3         11          0.979
 4         11          0.979
 5         12          0.977
 6         13          0.975
 7         13          0.975
 8         15          0.971
 9         26          0.950
10         30          0.943
# ℹ 218 more rows
…
